%YAML 1.1
%TAG !u! tag:unity3d.com,2011:
--- !u!29 &1
OcclusionCullingSettings:
  m_ObjectHideFlags: 0
  serializedVersion: 2
  m_OcclusionBakeSettings:
    smallestOccluder: 5
    smallestHole: 0.25
    backfaceThreshold: 100
  m_SceneGUID: 00000000000000000000000000000000
  m_OcclusionCullingData: {fileID: 0}
--- !u!104 &2
RenderSettings:
  m_ObjectHideFlags: 0
  serializedVersion: 8
  m_Fog: 0
  m_FogColor: {r: 0.5, g: 0.5, b: 0.5, a: 1}
  m_FogMode: 3
  m_FogDensity: 0.01
  m_LinearFogStart: 0
  m_LinearFogEnd: 300
  m_AmbientSkyColor: {r: 0.212, g: 0.227, b: 0.259, a: 1}
  m_AmbientEquatorColor: {r: 0.114, g: 0.125, b: 0.133, a: 1}
  m_AmbientGroundColor: {r: 0.047, g: 0.043, b: 0.035, a: 1}
  m_AmbientIntensity: 1
  m_AmbientMode: 0
  m_SubtractiveShadowColor: {r: 0.42, g: 0.478, b: 0.627, a: 1}
  m_SkyboxMaterial: {fileID: 0}
  m_HaloStrength: 0.5
  m_FlareStrength: 1
  m_FlareFadeSpeed: 3
  m_HaloTexture: {fileID: 0}
  m_SpotCookie: {fileID: 10001, guid: 0000000000000000e000000000000000, type: 0}
  m_DefaultReflectionMode: 0
  m_DefaultReflectionResolution: 128
  m_ReflectionBounces: 1
  m_ReflectionIntensity: 1
  m_CustomReflection: {fileID: 0}
  m_Sun: {fileID: 0}
  m_IndirectSpecularColor: {r: 0, g: 0, b: 0, a: 1}
--- !u!157 &3
LightmapSettings:
  m_ObjectHideFlags: 0
  serializedVersion: 9
  m_GIWorkflowMode: 1
  m_GISettings:
    serializedVersion: 2
    m_BounceScale: 1
    m_IndirectOutputScale: 1
    m_AlbedoBoost: 1
    m_TemporalCoherenceThreshold: 1
    m_EnvironmentLightingMode: 0
    m_EnableBakedLightmaps: 0
    m_EnableRealtimeLightmaps: 0
  m_LightmapEditorSettings:
    serializedVersion: 8
    m_Resolution: 2
    m_BakeResolution: 40
    m_TextureWidth: 1024
    m_TextureHeight: 1024
    m_AO: 0
    m_AOMaxDistance: 1
    m_CompAOExponent: 1
    m_CompAOExponentDirect: 0
    m_Padding: 2
    m_LightmapParameters: {fileID: 0}
    m_LightmapsBakeMode: 1
    m_TextureCompression: 1
    m_FinalGather: 0
    m_FinalGatherFiltering: 1
    m_FinalGatherRayCount: 256
    m_ReflectionCompression: 2
    m_MixedBakeMode: 3
    m_BakeBackend: 0
    m_PVRSampling: 1
    m_PVRDirectSampleCount: 32
    m_PVRSampleCount: 500
    m_PVRBounces: 2
    m_PVRFiltering: 0
    m_PVRFilteringMode: 1
    m_PVRCulling: 1
    m_PVRFilteringGaussRadiusDirect: 1
    m_PVRFilteringGaussRadiusIndirect: 5
    m_PVRFilteringGaussRadiusAO: 2
    m_PVRFilteringAtrousColorSigma: 1
    m_PVRFilteringAtrousNormalSigma: 1
    m_PVRFilteringAtrousPositionSigma: 1
  m_LightingDataAsset: {fileID: 0}
  m_ShadowMaskMode: 2
--- !u!196 &4
NavMeshSettings:
  serializedVersion: 2
  m_ObjectHideFlags: 0
  m_BuildSettings:
    serializedVersion: 2
    agentTypeID: 0
    agentRadius: 0.5
    agentHeight: 2
    agentSlope: 45
    agentClimb: 0.4
    ledgeDropHeight: 0
    maxJumpAcrossDistance: 0
    minRegionArea: 2
    manualCellSize: 0
    cellSize: 0.16666667
    manualTileSize: 0
    tileSize: 256
    accuratePlacement: 0
  m_NavMeshData: {fileID: 0}
--- !u!1 &56707244
GameObject:
  m_ObjectHideFlags: 0
  m_PrefabParentObject: {fileID: 0}
  m_PrefabInternal: {fileID: 0}
  serializedVersion: 5
  m_Component:
  - component: {fileID: 56707245}
  - component: {fileID: 56707247}
  - component: {fileID: 56707246}
  m_Layer: 5
  m_Name: IG
  m_TagString: Untagged
  m_Icon: {fileID: 0}
  m_NavMeshLayer: 0
  m_StaticEditorFlags: 0
  m_IsActive: 1
--- !u!224 &56707245
RectTransform:
  m_ObjectHideFlags: 0
  m_PrefabParentObject: {fileID: 0}
  m_PrefabInternal: {fileID: 0}
  m_GameObject: {fileID: 56707244}
  m_LocalRotation: {x: 0, y: 0, z: 0, w: 1}
  m_LocalPosition: {x: 0, y: 0, z: 0}
  m_LocalScale: {x: 1, y: 1, z: 1}
  m_Children: []
  m_Father: {fileID: 170965089}
  m_RootOrder: 0
  m_LocalEulerAnglesHint: {x: 0, y: 0, z: 0}
  m_AnchorMin: {x: 0.30152085, y: 0.49074072}
  m_AnchorMax: {x: 0.30152085, y: 0.49074072}
  m_AnchoredPosition: {x: -0.5, y: 2}
  m_SizeDelta: {x: 418, y: 400}
  m_Pivot: {x: 0.5, y: 0.5}
--- !u!114 &56707246
MonoBehaviour:
  m_ObjectHideFlags: 0
  m_PrefabParentObject: {fileID: 0}
  m_PrefabInternal: {fileID: 0}
  m_GameObject: {fileID: 56707244}
  m_Enabled: 1
  m_EditorHideFlags: 0
  m_Script: {fileID: -765806418, guid: f70555f144d8491a825f0804e09c671c, type: 3}
  m_Name: 
  m_EditorClassIdentifier: 
  m_Material: {fileID: 0}
  m_Color: {r: 1, g: 1, b: 1, a: 1}
  m_RaycastTarget: 0
  m_OnCullStateChanged:
    m_PersistentCalls:
      m_Calls: []
    m_TypeName: UnityEngine.UI.MaskableGraphic+CullStateChangedEvent, UnityEngine.UI,
      Version=1.0.0.0, Culture=neutral, PublicKeyToken=null
  m_Sprite: {fileID: 21300000, guid: 71ab08399a1961e45992216cb3625779, type: 3}
  m_Type: 0
  m_PreserveAspect: 1
  m_FillCenter: 1
  m_FillMethod: 4
  m_FillAmount: 1
  m_FillClockwise: 1
  m_FillOrigin: 0
--- !u!222 &56707247
CanvasRenderer:
  m_ObjectHideFlags: 0
  m_PrefabParentObject: {fileID: 0}
  m_PrefabInternal: {fileID: 0}
  m_GameObject: {fileID: 56707244}
--- !u!1 &170965083
GameObject:
  m_ObjectHideFlags: 0
  m_PrefabParentObject: {fileID: 0}
  m_PrefabInternal: {fileID: 0}
  serializedVersion: 5
  m_Component:
  - component: {fileID: 170965089}
  - component: {fileID: 170965088}
  - component: {fileID: 170965087}
  - component: {fileID: 170965086}
  - component: {fileID: 170965085}
  - component: {fileID: 170965084}
  m_Layer: 5
  m_Name: Canvas
  m_TagString: Untagged
  m_Icon: {fileID: 0}
  m_NavMeshLayer: 0
  m_StaticEditorFlags: 0
  m_IsActive: 1
--- !u!114 &170965084
MonoBehaviour:
  m_ObjectHideFlags: 0
  m_PrefabParentObject: {fileID: 0}
  m_PrefabInternal: {fileID: 0}
  m_GameObject: {fileID: 170965083}
  m_Enabled: 1
  m_EditorHideFlags: 0
  m_Script: {fileID: 11500000, guid: 4d0390bd8b8ffd640b34fe25065ff1df, type: 3}
  m_Name: 
  m_EditorClassIdentifier: 
  updateType: 0
  isSpeedBased: 0
  hasOnStart: 0
  hasOnPlay: 0
  hasOnUpdate: 0
  hasOnStepComplete: 0
  hasOnComplete: 1
  hasOnTweenCreated: 0
  onStart:
    m_PersistentCalls:
      m_Calls: []
    m_TypeName: UnityEngine.Events.UnityEvent, UnityEngine, Version=0.0.0.0, Culture=neutral,
      PublicKeyToken=null
  onPlay:
    m_PersistentCalls:
      m_Calls: []
    m_TypeName: UnityEngine.Events.UnityEvent, UnityEngine, Version=0.0.0.0, Culture=neutral,
      PublicKeyToken=null
  onUpdate:
    m_PersistentCalls:
      m_Calls: []
    m_TypeName: UnityEngine.Events.UnityEvent, UnityEngine, Version=0.0.0.0, Culture=neutral,
      PublicKeyToken=null
  onStepComplete:
    m_PersistentCalls:
      m_Calls: []
    m_TypeName: UnityEngine.Events.UnityEvent, UnityEngine, Version=0.0.0.0, Culture=neutral,
      PublicKeyToken=null
  onComplete:
    m_PersistentCalls:
      m_Calls:
      - m_Target: {fileID: 170965086}
        m_MethodName: AnimationSplashIsComplete
        m_Mode: 1
        m_Arguments:
          m_ObjectArgument: {fileID: 0}
          m_ObjectArgumentAssemblyTypeName: UnityEngine.Object, UnityEngine
          m_IntArgument: 0
          m_FloatArgument: 0
          m_StringArgument: 
          m_BoolArgument: 0
        m_CallState: 2
    m_TypeName: UnityEngine.Events.UnityEvent, UnityEngine, Version=0.0.0.0, Culture=neutral,
      PublicKeyToken=null
  onTweenCreated:
    m_PersistentCalls:
      m_Calls: []
    m_TypeName: UnityEngine.Events.UnityEvent, UnityEngine, Version=0.0.0.0, Culture=neutral,
      PublicKeyToken=null
  delay: 0
  duration: 1
  easeType: 37
  easeCurve:
    serializedVersion: 2
    m_Curve:
    - serializedVersion: 2
      time: 0
      value: 0
      inSlope: 0
      outSlope: 0
      tangentMode: 0
    - serializedVersion: 2
      time: 0.2
      value: 1
      inSlope: 0.04235249
      outSlope: -0
      tangentMode: 65
    - serializedVersion: 2
      time: 0.7007092
      value: 1
      inSlope: 0
      outSlope: 0.098408334
      tangentMode: 5
    - serializedVersion: 2
      time: 1
      value: 0
      inSlope: 0
      outSlope: 0
      tangentMode: 0
    m_PreInfinity: 2
    m_PostInfinity: 2
    m_RotationOrder: 4
  loopType: 0
  loops: 1
  id: 
  isRelative: 0
  isFrom: 0
  isIndependentUpdate: 0
  autoKill: 1
  isActive: 1
  isValid: 1
  target: {fileID: 170965085}
  animationType: 7
  targetType: 2
  forcedTargetType: 0
  autoPlay: 1
  useTargetAsV3: 0
  endValueFloat: 1
  endValueV3: {x: 0, y: 0, z: 0}
  endValueV2: {x: 0, y: 0}
  endValueColor: {r: 1, g: 1, b: 1, a: 1}
  endValueString: 
  endValueRect:
    serializedVersion: 2
    x: 0
    y: 0
    width: 0
    height: 0
  endValueTransform: {fileID: 0}
  optionalBool0: 0
  optionalFloat0: 0
  optionalInt0: 0
  optionalRotationMode: 0
  optionalScrambleMode: 0
  optionalString: 
--- !u!225 &170965085
CanvasGroup:
  m_ObjectHideFlags: 0
  m_PrefabParentObject: {fileID: 0}
  m_PrefabInternal: {fileID: 0}
  m_GameObject: {fileID: 170965083}
  m_Enabled: 1
  m_Alpha: 1
  m_Interactable: 1
  m_BlocksRaycasts: 1
  m_IgnoreParentGroups: 0
--- !u!114 &170965086
MonoBehaviour:
  m_ObjectHideFlags: 0
  m_PrefabParentObject: {fileID: 0}
  m_PrefabInternal: {fileID: 0}
  m_GameObject: {fileID: 170965083}
  m_Enabled: 1
  m_EditorHideFlags: 0
  m_Script: {fileID: 11500000, guid: cf329b8f5939b00418b147351a8c87d7, type: 3}
  m_Name: 
  m_EditorClassIdentifier: 
  initGame: {fileID: 1836258231}
--- !u!114 &170965087
MonoBehaviour:
  m_ObjectHideFlags: 0
  m_PrefabParentObject: {fileID: 0}
  m_PrefabInternal: {fileID: 0}
  m_GameObject: {fileID: 170965083}
  m_Enabled: 1
  m_EditorHideFlags: 0
  m_Script: {fileID: 1980459831, guid: f70555f144d8491a825f0804e09c671c, type: 3}
  m_Name: 
  m_EditorClassIdentifier: 
  m_UiScaleMode: 1
  m_ReferencePixelsPerUnit: 100
  m_ScaleFactor: 1
  m_ReferenceResolution: {x: 1920, y: 1080}
  m_ScreenMatchMode: 0
  m_MatchWidthOrHeight: 0
  m_PhysicalUnit: 3
  m_FallbackScreenDPI: 96
  m_DefaultSpriteDPI: 96
  m_DynamicPixelsPerUnit: 1
--- !u!223 &170965088
Canvas:
  m_ObjectHideFlags: 0
  m_PrefabParentObject: {fileID: 0}
  m_PrefabInternal: {fileID: 0}
  m_GameObject: {fileID: 170965083}
  m_Enabled: 1
  serializedVersion: 3
  m_RenderMode: 0
  m_Camera: {fileID: 0}
  m_PlaneDistance: 100
  m_PixelPerfect: 0
  m_ReceivesEvents: 1
  m_OverrideSorting: 0
  m_OverridePixelPerfect: 0
  m_SortingBucketNormalizedSize: 0
  m_AdditionalShaderChannelsFlag: 0
  m_SortingLayerID: 0
  m_SortingOrder: 0
  m_TargetDisplay: 0
--- !u!224 &170965089
RectTransform:
  m_ObjectHideFlags: 0
  m_PrefabParentObject: {fileID: 0}
  m_PrefabInternal: {fileID: 0}
  m_GameObject: {fileID: 170965083}
  m_LocalRotation: {x: 0, y: 0, z: 0, w: 1}
  m_LocalPosition: {x: 0, y: 0, z: 0}
  m_LocalScale: {x: 0, y: 0, z: 0}
  m_Children:
  - {fileID: 56707245}
  - {fileID: 855272901}
  m_Father: {fileID: 0}
  m_RootOrder: 2
  m_LocalEulerAnglesHint: {x: 0, y: 0, z: 0}
  m_AnchorMin: {x: 0, y: 0}
  m_AnchorMax: {x: 0, y: 0}
  m_AnchoredPosition: {x: 0, y: 0}
  m_SizeDelta: {x: 0, y: 0}
  m_Pivot: {x: 0, y: 0}
--- !u!1 &855272900
GameObject:
  m_ObjectHideFlags: 0
  m_PrefabParentObject: {fileID: 0}
  m_PrefabInternal: {fileID: 0}
  serializedVersion: 5
  m_Component:
  - component: {fileID: 855272901}
  - component: {fileID: 855272903}
  - component: {fileID: 855272902}
  m_Layer: 5
  m_Name: BC
  m_TagString: Untagged
  m_Icon: {fileID: 0}
  m_NavMeshLayer: 0
  m_StaticEditorFlags: 0
  m_IsActive: 1
--- !u!224 &855272901
RectTransform:
  m_ObjectHideFlags: 0
  m_PrefabParentObject: {fileID: 0}
  m_PrefabInternal: {fileID: 0}
  m_GameObject: {fileID: 855272900}
  m_LocalRotation: {x: -0, y: -0, z: -0, w: 1}
  m_LocalPosition: {x: 0, y: 0, z: 0}
  m_LocalScale: {x: 1, y: 1, z: 1}
  m_Children: []
  m_Father: {fileID: 170965089}
  m_RootOrder: 1
  m_LocalEulerAnglesHint: {x: 0, y: 0, z: 0}
  m_AnchorMin: {x: 0.69622916, y: 0.5255927}
  m_AnchorMax: {x: 0.69622916, y: 0.5255927}
  m_AnchoredPosition: {x: -9, y: 10}
  m_SizeDelta: {x: 401, y: 491}
  m_Pivot: {x: 0.5, y: 0.5}
--- !u!114 &855272902
MonoBehaviour:
  m_ObjectHideFlags: 0
  m_PrefabParentObject: {fileID: 0}
  m_PrefabInternal: {fileID: 0}
  m_GameObject: {fileID: 855272900}
  m_Enabled: 1
  m_EditorHideFlags: 0
  m_Script: {fileID: -765806418, guid: f70555f144d8491a825f0804e09c671c, type: 3}
  m_Name: 
  m_EditorClassIdentifier: 
  m_Material: {fileID: 0}
  m_Color: {r: 1, g: 1, b: 1, a: 1}
  m_RaycastTarget: 0
  m_OnCullStateChanged:
    m_PersistentCalls:
      m_Calls: []
    m_TypeName: UnityEngine.UI.MaskableGraphic+CullStateChangedEvent, UnityEngine.UI,
      Version=1.0.0.0, Culture=neutral, PublicKeyToken=null
  m_Sprite: {fileID: 21300000, guid: 0642b5ea0002a8c44a408bd83da337ed, type: 3}
  m_Type: 0
  m_PreserveAspect: 1
  m_FillCenter: 1
  m_FillMethod: 4
  m_FillAmount: 1
  m_FillClockwise: 1
  m_FillOrigin: 0
--- !u!222 &855272903
CanvasRenderer:
  m_ObjectHideFlags: 0
  m_PrefabParentObject: {fileID: 0}
  m_PrefabInternal: {fileID: 0}
  m_GameObject: {fileID: 855272900}
--- !u!1001 &1636887981
Prefab:
  m_ObjectHideFlags: 0
  serializedVersion: 2
  m_Modification:
    m_TransformParent: {fileID: 0}
    m_Modifications:
    - target: {fileID: 114045374040960970, guid: 4fc84c535e361184e89195407f0b54af,
        type: 2}
      propertyPath: audio.Array.size
      value: 10
      objectReference: {fileID: 0}
    - target: {fileID: 114707367809127282, guid: 4fc84c535e361184e89195407f0b54af,
        type: 2}
      propertyPath: audioSource.Array.size
      value: 3
      objectReference: {fileID: 0}
    - target: {fileID: 4905031241746842, guid: 4fc84c535e361184e89195407f0b54af, type: 2}
      propertyPath: m_LocalPosition.x
      value: 0.36883032
      objectReference: {fileID: 0}
    - target: {fileID: 4905031241746842, guid: 4fc84c535e361184e89195407f0b54af, type: 2}
      propertyPath: m_LocalPosition.y
      value: 1.0124207
      objectReference: {fileID: 0}
    - target: {fileID: 4905031241746842, guid: 4fc84c535e361184e89195407f0b54af, type: 2}
      propertyPath: m_LocalPosition.z
      value: -0.7810948
      objectReference: {fileID: 0}
    - target: {fileID: 4905031241746842, guid: 4fc84c535e361184e89195407f0b54af, type: 2}
      propertyPath: m_LocalRotation.x
      value: 0
      objectReference: {fileID: 0}
    - target: {fileID: 4905031241746842, guid: 4fc84c535e361184e89195407f0b54af, type: 2}
      propertyPath: m_LocalRotation.y
      value: 0
      objectReference: {fileID: 0}
    - target: {fileID: 4905031241746842, guid: 4fc84c535e361184e89195407f0b54af, type: 2}
      propertyPath: m_LocalRotation.z
      value: 0
      objectReference: {fileID: 0}
    - target: {fileID: 4905031241746842, guid: 4fc84c535e361184e89195407f0b54af, type: 2}
      propertyPath: m_LocalRotation.w
      value: 1
      objectReference: {fileID: 0}
    - target: {fileID: 4905031241746842, guid: 4fc84c535e361184e89195407f0b54af, type: 2}
      propertyPath: m_RootOrder
      value: 1
      objectReference: {fileID: 0}
    - target: {fileID: 82091657479275638, guid: 4fc84c535e361184e89195407f0b54af,
        type: 2}
      propertyPath: OutputAudioMixerGroup
      value: 
      objectReference: {fileID: 0}
    - target: {fileID: 114045374040960970, guid: 4fc84c535e361184e89195407f0b54af,
        type: 2}
      propertyPath: audio.Array.data[0]
      value: 
      objectReference: {fileID: 8300000, guid: 1c7decabd1150e34a8afa41476f33da7, type: 3}
    - target: {fileID: 82091657479275638, guid: 4fc84c535e361184e89195407f0b54af,
        type: 2}
      propertyPath: m_audioClip
      value: 
      objectReference: {fileID: 8300000, guid: 2de899a1802aa384f93dcce2879a9140, type: 3}
    - target: {fileID: 82091657479275638, guid: 4fc84c535e361184e89195407f0b54af,
        type: 2}
      propertyPath: m_PlayOnAwake
      value: 0
      objectReference: {fileID: 0}
    - target: {fileID: 82091657479275638, guid: 4fc84c535e361184e89195407f0b54af,
        type: 2}
      propertyPath: Mute
      value: 1
      objectReference: {fileID: 0}
    - target: {fileID: 114045374040960970, guid: 4fc84c535e361184e89195407f0b54af,
        type: 2}
      propertyPath: audio.Array.data[1]
      value: 
      objectReference: {fileID: 8300000, guid: 2de899a1802aa384f93dcce2879a9140, type: 3}
    - target: {fileID: 114045374040960970, guid: 4fc84c535e361184e89195407f0b54af,
        type: 2}
      propertyPath: audio.Array.data[2]
      value: 
      objectReference: {fileID: 8300000, guid: 0eccc73411504854497601c5a23e7684, type: 3}
    - target: {fileID: 114707367809127282, guid: 4fc84c535e361184e89195407f0b54af,
        type: 2}
      propertyPath: initFade
      value: 1
      objectReference: {fileID: 0}
    - target: {fileID: 82091657479275638, guid: 4fc84c535e361184e89195407f0b54af,
        type: 2}
      propertyPath: Loop
      value: 1
      objectReference: {fileID: 0}
    - target: {fileID: 114045374040960970, guid: 4fc84c535e361184e89195407f0b54af,
        type: 2}
      propertyPath: audio.Array.data[3]
      value: 
      objectReference: {fileID: 8300000, guid: cdee53698a2d1444da5ca5265991cc2a, type: 3}
    - target: {fileID: 114045374040960970, guid: 4fc84c535e361184e89195407f0b54af,
        type: 2}
      propertyPath: audio.Array.data[4]
      value: 
      objectReference: {fileID: 8300000, guid: 4c2860023602ae142bd0dd0491ae940f, type: 3}
    - target: {fileID: 114045374040960970, guid: 4fc84c535e361184e89195407f0b54af,
        type: 2}
      propertyPath: audio.Array.data[5]
      value: 
      objectReference: {fileID: 8300000, guid: ae37cc94ccee87f43ae54225ce0e5cb3, type: 3}
    - target: {fileID: 114045374040960970, guid: 4fc84c535e361184e89195407f0b54af,
        type: 2}
      propertyPath: audio.Array.data[6]
      value: 
      objectReference: {fileID: 8300000, guid: 6ed269774d52f2042ba9ad5a7da7db81, type: 3}
    - target: {fileID: 114045374040960970, guid: 4fc84c535e361184e89195407f0b54af,
        type: 2}
      propertyPath: audio.Array.data[7]
      value: 
      objectReference: {fileID: 8300000, guid: cb8bff70cac738b428baf43669fb7e30, type: 3}
    - target: {fileID: 114707367809127282, guid: 4fc84c535e361184e89195407f0b54af,
        type: 2}
      propertyPath: audioSource.Array.data[2]
      value: 
      objectReference: {fileID: 1636887983}
    - target: {fileID: 114045374040960970, guid: 4fc84c535e361184e89195407f0b54af,
        type: 2}
      propertyPath: audio.Array.data[8]
      value: 
      objectReference: {fileID: 8300000, guid: a83d5ef1d7429024989eef2004fc5605, type: 3}
    - target: {fileID: 114045374040960970, guid: 4fc84c535e361184e89195407f0b54af,
        type: 2}
      propertyPath: audio.Array.data[9]
      value: 
      objectReference: {fileID: 8300000, guid: 1b7c31c50cacdd94f8c9325eb991593d, type: 3}
    - target: {fileID: 114707367809127282, guid: 4fc84c535e361184e89195407f0b54af,
        type: 2}
      propertyPath: initFadeDuration
      value: 1
      objectReference: {fileID: 0}
    - target: {fileID: 82091657479275638, guid: 4fc84c535e361184e89195407f0b54af,
        type: 2}
      propertyPath: m_Volume
      value: 0
      objectReference: {fileID: 0}
    m_RemovedComponents: []
  m_ParentPrefab: {fileID: 100100000, guid: 4fc84c535e361184e89195407f0b54af, type: 2}
  m_IsPrefabParent: 0
--- !u!1 &1636887982 stripped
GameObject:
  m_PrefabParentObject: {fileID: 1293454680401672, guid: 4fc84c535e361184e89195407f0b54af,
    type: 2}
  m_PrefabInternal: {fileID: 1636887981}
--- !u!82 &1636887983
AudioSource:
  m_ObjectHideFlags: 0
  m_PrefabParentObject: {fileID: 0}
  m_PrefabInternal: {fileID: 0}
  m_GameObject: {fileID: 1636887982}
  m_Enabled: 1
  serializedVersion: 4
  OutputAudioMixerGroup: {fileID: 0}
  m_audioClip: {fileID: 0}
  m_PlayOnAwake: 1
  m_Volume: 1
  m_Pitch: 1
  Loop: 0
  Mute: 0
  Spatialize: 0
  SpatializePostEffects: 0
  Priority: 128
  DopplerLevel: 1
  MinDistance: 1
  MaxDistance: 500
  Pan2D: 0
  rolloffMode: 0
  BypassEffects: 0
  BypassListenerEffects: 0
  BypassReverbZones: 0
  rolloffCustomCurve:
    serializedVersion: 2
    m_Curve:
    - serializedVersion: 2
      time: 0
      value: 1
      inSlope: 0
      outSlope: 0
      tangentMode: 0
    - serializedVersion: 2
      time: 1
      value: 0
      inSlope: 0
      outSlope: 0
      tangentMode: 0
    m_PreInfinity: 2
    m_PostInfinity: 2
    m_RotationOrder: 4
  panLevelCustomCurve:
    serializedVersion: 2
    m_Curve:
    - serializedVersion: 2
      time: 0
      value: 0
      inSlope: 0
      outSlope: 0
      tangentMode: 0
    m_PreInfinity: 2
    m_PostInfinity: 2
    m_RotationOrder: 0
  spreadCustomCurve:
    serializedVersion: 2
    m_Curve:
    - serializedVersion: 2
      time: 0
      value: 0
      inSlope: 0
      outSlope: 0
      tangentMode: 0
    m_PreInfinity: 2
    m_PostInfinity: 2
    m_RotationOrder: 4
  reverbZoneMixCustomCurve:
    serializedVersion: 2
    m_Curve:
    - serializedVersion: 2
      time: 0
      value: 1
      inSlope: 0
      outSlope: 0
      tangentMode: 0
    m_PreInfinity: 2
    m_PostInfinity: 2
    m_RotationOrder: 0
--- !u!1 &1696928091
GameObject:
  m_ObjectHideFlags: 0
  m_PrefabParentObject: {fileID: 0}
  m_PrefabInternal: {fileID: 0}
  serializedVersion: 5
  m_Component:
  - component: {fileID: 1696928096}
  - component: {fileID: 1696928095}
  m_Layer: 0
  m_Name: Camera
  m_TagString: Untagged
  m_Icon: {fileID: 0}
  m_NavMeshLayer: 0
  m_StaticEditorFlags: 0
  m_IsActive: 1
--- !u!20 &1696928095
Camera:
  m_ObjectHideFlags: 0
  m_PrefabParentObject: {fileID: 0}
  m_PrefabInternal: {fileID: 0}
  m_GameObject: {fileID: 1696928091}
  m_Enabled: 1
  serializedVersion: 2
  m_ClearFlags: 1
  m_BackGroundColor: {r: 0, g: 0, b: 0, a: 0}
  m_NormalizedViewPortRect:
    serializedVersion: 2
    x: 0
    y: 0
    width: 1
    height: 1
  near clip plane: 0.3
  far clip plane: 1000
  field of view: 60
  orthographic: 0
  orthographic size: 5
  m_Depth: 0
  m_CullingMask:
    serializedVersion: 2
    m_Bits: 4294967295
  m_RenderingPath: -1
  m_TargetTexture: {fileID: 0}
  m_TargetDisplay: 0
  m_TargetEye: 3
  m_HDR: 1
  m_AllowMSAA: 1
  m_ForceIntoRT: 0
  m_OcclusionCulling: 1
  m_StereoConvergence: 10
  m_StereoSeparation: 0.022
  m_StereoMirrorMode: 0
--- !u!4 &1696928096
Transform:
  m_ObjectHideFlags: 0
  m_PrefabParentObject: {fileID: 0}
  m_PrefabInternal: {fileID: 0}
  m_GameObject: {fileID: 1696928091}
  m_LocalRotation: {x: 0, y: 0, z: 0, w: 1}
  m_LocalPosition: {x: 654.06836, y: 523.121, z: -13.124329}
  m_LocalScale: {x: 1, y: 1, z: 1}
  m_Children: []
  m_Father: {fileID: 0}
  m_RootOrder: 3
  m_LocalEulerAnglesHint: {x: 0, y: 0, z: 0}
--- !u!1001 &1836258230
Prefab:
  m_ObjectHideFlags: 0
  serializedVersion: 2
  m_Modification:
    m_TransformParent: {fileID: 0}
    m_Modifications:
    - target: {fileID: 4648652120959542, guid: 34256f406563b3c428f9eb96f8db1abb, type: 2}
      propertyPath: m_LocalPosition.x
      value: 0
      objectReference: {fileID: 0}
    - target: {fileID: 4648652120959542, guid: 34256f406563b3c428f9eb96f8db1abb, type: 2}
      propertyPath: m_LocalPosition.y
      value: 0
      objectReference: {fileID: 0}
    - target: {fileID: 4648652120959542, guid: 34256f406563b3c428f9eb96f8db1abb, type: 2}
      propertyPath: m_LocalPosition.z
      value: 0
      objectReference: {fileID: 0}
    - target: {fileID: 4648652120959542, guid: 34256f406563b3c428f9eb96f8db1abb, type: 2}
      propertyPath: m_LocalRotation.x
      value: 0
      objectReference: {fileID: 0}
    - target: {fileID: 4648652120959542, guid: 34256f406563b3c428f9eb96f8db1abb, type: 2}
      propertyPath: m_LocalRotation.y
      value: 0
      objectReference: {fileID: 0}
    - target: {fileID: 4648652120959542, guid: 34256f406563b3c428f9eb96f8db1abb, type: 2}
      propertyPath: m_LocalRotation.z
      value: 0
      objectReference: {fileID: 0}
    - target: {fileID: 4648652120959542, guid: 34256f406563b3c428f9eb96f8db1abb, type: 2}
      propertyPath: m_LocalRotation.w
      value: 1
      objectReference: {fileID: 0}
    - target: {fileID: 4648652120959542, guid: 34256f406563b3c428f9eb96f8db1abb, type: 2}
      propertyPath: m_RootOrder
      value: 0
      objectReference: {fileID: 0}
    - target: {fileID: 114396003033317650, guid: 34256f406563b3c428f9eb96f8db1abb,
        type: 2}
      propertyPath: sceneToLoad
      value: 2
      objectReference: {fileID: 0}
    - target: {fileID: 1163556967307062, guid: 34256f406563b3c428f9eb96f8db1abb, type: 2}
      propertyPath: m_IsActive
      value: 1
      objectReference: {fileID: 0}
    - target: {fileID: 114396003033317650, guid: 34256f406563b3c428f9eb96f8db1abb,
        type: 2}
      propertyPath: allAquariumsUnlocked
      value: 1
      objectReference: {fileID: 0}
    - target: {fileID: 114396003033317650, guid: 34256f406563b3c428f9eb96f8db1abb,
        type: 2}
      propertyPath: allObjectvesUnlocked
      value: 1
      objectReference: {fileID: 0}
    - target: {fileID: 114396003033317650, guid: 34256f406563b3c428f9eb96f8db1abb,
        type: 2}
      propertyPath: deleteAllKeys
      value: 0
      objectReference: {fileID: 0}
    - target: {fileID: 1163556967307062, guid: 34256f406563b3c428f9eb96f8db1abb, type: 2}
      propertyPath: m_Name
      value: InitializeGame
      objectReference: {fileID: 0}
    m_RemovedComponents: []
  m_ParentPrefab: {fileID: 100100000, guid: 34256f406563b3c428f9eb96f8db1abb, type: 2}
  m_IsPrefabParent: 0
--- !u!114 &1836258231 stripped
MonoBehaviour:
  m_PrefabParentObject: {fileID: 114396003033317650, guid: 34256f406563b3c428f9eb96f8db1abb,
    type: 2}
  m_PrefabInternal: {fileID: 1836258230}
  m_Script: {fileID: 11500000, guid: dafe050d86d60d84a9756fda62f3fb3b, type: 3}
